[
    {
        "model": "admin_interface.theme",
        "fields": {
            "name": "Panel administracyjny",
            "active": true,
            "title": "Panel administracyjny",
            "title_color": "#88f5f5",
            "title_visible": true,
            "logo": "../media/images/logo/Szkolenie.png",
            "logo_color": "#fdfd88",
            "logo_visible": true,
            "css_header_background_color": "#0C4B33",
            "css_header_text_color": "#44B78B",
            "css_header_link_color": "#FFFFFF",
            "css_header_link_hover_color": "#C9F0DD",
            "css_module_background_color": "#44B78B",
            "css_module_text_color": "#FFFFFF",
            "css_module_link_color": "#FFFFFF",
            "css_module_link_hover_color": "#C9F0DD",
            "css_module_rounded_corners": true,
            "css_generic_link_color": "#0C3C26",
            "css_generic_link_hover_color": "#156641",
            "css_save_button_background_color": "#0C4B33",
            "css_save_button_background_hover_color": "#0C3C26",
            "css_save_button_text_color": "#FFFFFF",
            "css_delete_button_background_color": "#BA2121",
            "css_delete_button_background_hover_color": "#A41515",
            "css_delete_button_text_color": "#FFFFFF",
            "css": "",
            "related_modal_active": true,
            "related_modal_background_color": "#000000",
            "related_modal_background_opacity": 0.2,
            "related_modal_rounded_corners": true,
            "list_filter_dropdown": false,
            "recent_actions_visible": true
        }
    }
]